…
Quanto maior o p_together maior a chance das palavras serem encontradas na mesma janela e exibe a relação entre a probabilidade destas palavras aparecerem sozinhas contra a probabilidade das duas palavras em questão aparecerem na mesma janela.

Vamos observar quais palavras estão associadas a “praia”:

normalized_prob %>% 
  dplyr::filter(word1 == "praia") %>%
  dplyr::arrange(-p_together)

## # A tibble: 46 x 7
##    word1 word2         n          p      p1        p2 p_together
##    <chr> <chr>     <dbl>      <dbl>   <dbl>     <dbl>      <dbl>
##  1 praia praia       573 0.000182   0.00103 0.00103        171. 
##  2 praia saco         54 0.0000171  0.00103 0.0000998      167. 
##  3 praia aonde        34 0.0000108  0.00103 0.0000665      157. 
##  4 praia vimos        28 0.00000888 0.00103 0.0000998       86.3
##  5 praia planalto     32 0.0000101  0.00103 0.000133        74.0
##  6 praia nascente     28 0.00000888 0.00103 0.000166        51.8
##  7 praia repente      28 0.00000888 0.00103 0.000200        43.2
##  8 praia brilho       32 0.0000101  0.00103 0.000233        42.3
##  9 praia autocarro    48 0.0000152  0.00103 0.000366        40.4
## 10 praia argel        21 0.00000666 0.00103 0.000166        38.9
## # ... with 36 more rows

Nossa palavra mais similar é “saco”, engraçado, mas faz parte da personalidade de Mersault que vai guiando (ou sendo guiado) durante o livro sem tomar muitas decisões, tomando ações, por muitas vezes, por influência dos outros personagens ou apenas por desejos repentinos que dá neste. Tanto que sua frase marcante é:

“Tanto faz.”

Vamos observar quais palavras estão associadas a “raimundo”:

normalized_prob %>% 
  dplyr::filter(word1 == "raimundo") %>%
  dplyr::arrange(-p_together)

## # A tibble: 195 x 7
##    word1    word2           n          p      p1        p2 p_together
##    <chr>    <chr>       <dbl>      <dbl>   <dbl>     <dbl>      <dbl>
##  1 raimundo raimundo     1687 0.000535   0.00306 0.00306         57.2
##  2 raimundo copo           33 0.0000105  0.00306 0.0000665       51.4
##  3 raimundo vítima         31 0.00000983 0.00306 0.0000665       48.3
##  4 raimundo bêbedo         27 0.00000856 0.00306 0.0000665       42.1
##  5 raimundo ouviu          40 0.0000127  0.00306 0.0000998       41.6
##  6 raimundo malandro       26 0.00000825 0.00306 0.0000665       40.5
##  7 raimundo esbofeteara    26 0.00000825 0.00306 0.0000665       40.5
##  8 raimundo demora         25 0.00000793 0.00306 0.0000665       39.0
##  9 raimundo ouvimos        37 0.0000117  0.00306 0.0000998       38.4
## 10 raimundo dissesse       23 0.00000729 0.00306 0.0000665       35.8
## # ... with 185 more rows
…
  similarities %>%
    arrange(-similarity)    
}

Testando a função:

sol <- search_synonyms(word_vectors, word_vectors["sol",])

sol

## # A tibble: 1,895 x 2
##    token       similarity
##    <chr>            <dbl>
##  1 sol              149. 
##  2 pouco             31.5
##  3 acalmou           29.5
##  4 principiava       29.2
##  5 mim               27.5
##  6 tudo              26.3
##  7 pés               25.3
##  8 vez               24.0
##  9 porteiro          23.4
## 10 alto              23.0
## # ... with 1,885 more rows
…
